1 10 20
100 200 125
201 210 89
900 1000 174
37 43 110
59 76 116
200 206 89
30 70 113
10 34 112
74 130 122
104 3 119
300 6000 238
1 999999 525
32 5 112
4 9 20
1 2 2
5 5 6
400 400 28
1 1 1
2 2 2
3 3 8
999998 999997 259
10 10 7
20 100 119
5 77 116
45 55 113
22 33 112
33 44 110
44 55 113
55 77 116
77 99 119
88 44 116
90 45 116
54973 84752 351
245243 2345 443
24536 867 282
85787 34 351
456 6 144
645334 6 509
6 5 9
5 465357 449
8 876 179
6 74678 340
6 536 144
8 8576 262
35673 543 324
536 653 145
6754 6533 244
34 56 113
34 22 112
765 7654 262
45 65478 340
65 76 116
456 899 179
876 9321 262
543 345 142
54 356 144
66 777 171
88 999 179
90 21 116
21 54 113
6894 43327 324
65 88 116
200 300 128
500 600 137
800 1000 179
800 2000 182
302 304 43
401 504 142
601 810 171
101 403 144
30 90 116
9 81 116
2 4 8
3 9 20
4 16 20
5 25 24
6 36 112
7 49 112
8 64 113
10 100 119
11 121 119
12 144 122
13 169 122
14 196 125
15 225 125
16 256 128
17 289 128
18 324 131
19 361 144
20 400 144
105 501 144
50000 100000 351
50001 200010 383
50002 100001 351
400 500 142
201 411 144
52435 765567 509
425 52436 324
64 25346 282
654 41366 324
654 256 145
776 52566 340
2464 65266 340
7635 54231 340
43 7688 262
25 541 144
654 3657 217
256 26475 282
