..............
----------------------------------------------------------------------
Ran 14 tests in 0.048s

OK
Name             Stmts   Miss Branch BrPart  Cover   Missing
------------------------------------------------------------
Collatz.py          62     20     38      3    59%   52-74, 104-105, 135, 51->52, 93->104, 134->135
TestCollatz.py      61      0      0      0   100%
------------------------------------------------------------
TOTAL              123     20     38      3    75%
